<?xml version="1.0" encoding="UTF-8" standalone="no"?>

<svg width="512" height="512">
   <circle cx="256" cy="256" r="256" stroke="black" stroke-width="8" fill="white" />

   <polygon points="0,256 384,256 192,16" stroke="black" stroke-width="8" fill="#263696" />
   <polygon points="320,256 512,256 416,136" stroke="black" stroke-width="8" fill="#263696" />
   <polygon points="128,256 512,256 320,496" stroke="black" stroke-width="8" fill="#263696" />
   <polygon points="0,256 192,256 96,392" stroke="black" stroke-width="8" fill="#263696" />

   <path d="M 0,256 C 256,-100 256,612 512,256" stroke="black" stroke-width="8" fill="#37D3BE" />

</svg>

